%YAML 1.1
%TAG !u! tag:unity3d.com,2011:
--- !u!1001 &855955339141501048
PrefabInstance:
  m_ObjectHideFlags: 0
  serializedVersion: 2
  m_Modification:
    m_TransformParent: {fileID: 0}
    m_Modifications:
    - target: {fileID: 5017319388170335768, guid: a07e58a4e3eec2448b8e2138f246ec36,
        type: 3}
      propertyPath: m_RootOrder
      value: 0
      objectReference: {fileID: 0}
    - target: {fileID: 5017319388170335768, guid: a07e58a4e3eec2448b8e2138f246ec36,
        type: 3}
      propertyPath: m_LocalScale.x
      value: 0.29722
      objectReference: {fileID: 0}
    - target: {fileID: 5017319388170335768, guid: a07e58a4e3eec2448b8e2138f246ec36,
        type: 3}
      propertyPath: m_LocalScale.y
      value: 0.74305
      objectReference: {fileID: 0}
    - target: {fileID: 5017319388170335768, guid: a07e58a4e3eec2448b8e2138f246ec36,
        type: 3}
      propertyPath: m_LocalScale.z
      value: 0.29722
      objectReference: {fileID: 0}
    - target: {fileID: 5017319388170335768, guid: a07e58a4e3eec2448b8e2138f246ec36,
        type: 3}
      propertyPath: m_LocalPosition.x
      value: -25.064049
      objectReference: {fileID: 0}
    - target: {fileID: 5017319388170335768, guid: a07e58a4e3eec2448b8e2138f246ec36,
        type: 3}
      propertyPath: m_LocalPosition.y
      value: 170.46
      objectReference: {fileID: 0}
    - target: {fileID: 5017319388170335768, guid: a07e58a4e3eec2448b8e2138f246ec36,
        type: 3}
      propertyPath: m_LocalPosition.z
      value: 16.07351
      objectReference: {fileID: 0}
    - target: {fileID: 5017319388170335768, guid: a07e58a4e3eec2448b8e2138f246ec36,
        type: 3}
      propertyPath: m_LocalRotation.w
      value: 1
      objectReference: {fileID: 0}
    - target: {fileID: 5017319388170335768, guid: a07e58a4e3eec2448b8e2138f246ec36,
        type: 3}
      propertyPath: m_LocalRotation.x
      value: -0
      objectReference: {fileID: 0}
    - target: {fileID: 5017319388170335768, guid: a07e58a4e3eec2448b8e2138f246ec36,
        type: 3}
      propertyPath: m_LocalRotation.y
      value: -0
      objectReference: {fileID: 0}
    - target: {fileID: 5017319388170335768, guid: a07e58a4e3eec2448b8e2138f246ec36,
        type: 3}
      propertyPath: m_LocalRotation.z
      value: -0
      objectReference: {fileID: 0}
    - target: {fileID: 5017319388170335768, guid: a07e58a4e3eec2448b8e2138f246ec36,
        type: 3}
      propertyPath: m_LocalEulerAnglesHint.x
      value: 0
      objectReference: {fileID: 0}
    - target: {fileID: 5017319388170335768, guid: a07e58a4e3eec2448b8e2138f246ec36,
        type: 3}
      propertyPath: m_LocalEulerAnglesHint.y
      value: 0
      objectReference: {fileID: 0}
    - target: {fileID: 5017319388170335768, guid: a07e58a4e3eec2448b8e2138f246ec36,
        type: 3}
      propertyPath: m_LocalEulerAnglesHint.z
      value: 0
      objectReference: {fileID: 0}
    - target: {fileID: 5439572196273304702, guid: a07e58a4e3eec2448b8e2138f246ec36,
        type: 3}
      propertyPath: m_Materials.Array.data[0]
      value: 
      objectReference: {fileID: 2100000, guid: f84d654c9e4655c4f8034dae5733ea31, type: 2}
    - target: {fileID: 6363616992066048634, guid: a07e58a4e3eec2448b8e2138f246ec36,
        type: 3}
      propertyPath: m_Type
      value: 2
      objectReference: {fileID: 0}
    - target: {fileID: 6363616992066048634, guid: a07e58a4e3eec2448b8e2138f246ec36,
        type: 3}
      propertyPath: m_Range
      value: 20
      objectReference: {fileID: 0}
    - target: {fileID: 6363616992066048634, guid: a07e58a4e3eec2448b8e2138f246ec36,
        type: 3}
      propertyPath: m_Color.b
      value: 1
      objectReference: {fileID: 0}
    - target: {fileID: 6363616992066048634, guid: a07e58a4e3eec2448b8e2138f246ec36,
        type: 3}
      propertyPath: m_Color.g
      value: 0.57322216
      objectReference: {fileID: 0}
    - target: {fileID: 6363616992066048634, guid: a07e58a4e3eec2448b8e2138f246ec36,
        type: 3}
      propertyPath: m_Color.r
      value: 0
      objectReference: {fileID: 0}
    - target: {fileID: 6941916360378331934, guid: a07e58a4e3eec2448b8e2138f246ec36,
        type: 3}
      propertyPath: m_Name
      value: StaticLightBlue Variant
      objectReference: {fileID: 0}
    m_RemovedComponents: []
  m_SourcePrefab: {fileID: 100100000, guid: a07e58a4e3eec2448b8e2138f246ec36, type: 3}
