%YAML 1.1
%TAG !u! tag:unity3d.com,2011:
--- !u!1045 &1
EditorBuildSettings:
  m_ObjectHideFlags: 0
  serializedVersion: 2
  m_Scenes:
  - enabled: 0
    path: Assets/Scenes/SampleScene.unity
    guid: 99c9720ab356a0642a771bea13969a05
  - enabled: 1
    path: Assets/Scenes/Main Menu.unity
    guid: 37c82698116172d48a555f4241439052
  - enabled: 1
    path: Assets/Scenes/Parcial 2.unity
    guid: 41b13cc6b827ec24791fb6328f22969a
  m_configObjects: {}
